{
  "project_info": {
    "project_number": "1055700831042",
    "firebase_url": "https://sustainalexcadinphilipthomasva.firebaseio.com",
    "project_id": "sustainalexcadinphilipthomasva",
    "storage_bucket": "sustainalexcadinphilipthomasva.appspot.com"
  },
  "client": [
    {
      "client_info": {
        "mobilesdk_app_id": "1:1055700831042:android:82f4ef25db01d4da1f56db",
        "android_client_info": {
          "package_name": "com.philip.sustainalexcadinphilipthomasvadim"
        }
      },
      "oauth_client": [
        {
          "client_id": "1055700831042-d7iad125mqmr84g2knqbptd1p3qvg4i6.apps.googleusercontent.com",
          "client_type": 1,
          "android_info": {
            "package_name": "com.philip.sustainalexcadinphilipthomasvadim",
            "certificate_hash": "79528315113f3868a412b9c769ca7142e671e552"
          }
        },
        {
          "client_id": "1055700831042-79b6t3e8el30p4iamu1vjb3r5vu595dq.apps.googleusercontent.com",
          "client_type": 1,
          "android_info": {
            "package_name": "com.philip.sustainalexcadinphilipthomasvadim",
            "certificate_hash": "09e823335477424ae0358a6bd34993c88f82c49f"
          }
        },
        {
          "client_id": "1055700831042-jkqtpa4r4gojic6uer4jpttruhjjiifb.apps.googleusercontent.com",
          "client_type": 3
        }
      ],
      "api_key": [
        {
          "current_key": "AIzaSyCYbpyp18wbOA_TdLCNu41LLkSpWZMh7z0"
        }
      ],
      "services": {
        "appinvite_service": {
          "other_platform_oauth_client": [
            {
              "client_id": "1055700831042-jkqtpa4r4gojic6uer4jpttruhjjiifb.apps.googleusercontent.com",
              "client_type": 3
            }
          ]
        }
      }
    }
  ],
  "configuration_version": "1"
}